{
  "openapi": "3.0.3",
  "info": {
    "title": "Kalkulacka API",
    "description": "Kalkulacka web api",
    "version": "1.0.0",
    "contact": {
      "name": "Lolita Havrychko",
      "email": "lolita.havrychko@synetech.cz"
    }
  },
  "servers": [
    {
      "url": "https://pronajmisito.cz/api/v1"
    }
  ],
  "paths": {
    "/category": {
      "description": "Categories Resource",
      "get": {
        "operationId": "getCategory",
        "summary": "Your GET endpoint",
        "tags": ["Category"],
        "responses": {
          "200": {
            "description": "OK",
            "content": {
              "application/json": {
                "schema": {
                  "type": "object",
                  "additionalProperties": {
                    "type": "object",
                    "properties": {
                      "name": {
                        "type": "string",
                        "example": "5"
                      },
                      "name-url": {
                        "type": "string",
                        "example": "mobiliar-prislusenstvi"
                      },
                      "order": {
                        "type": "integer",
                        "example": 2
                      }
                    }
                  }
                }
              }
            }
          }
        }
      }
    },
    "/category/{id}": {
      "description": "get category based on id",
      "get": {
        "operationId": "getCategoryId",
        "tags": ["Category"],
        "parameters": [
          {
            "in": "path",
            "name": "id",
            "required": true,
            "schema": {
              "type": "string"
            }
          }
        ],
        "responses": {
          "200": {
            "description": "success response with path params",
            "content": {
              "application/json": {
                "schema": {
                  "type": "object",
                  "additionalProperties": {
                    "type": "object",
                    "properties": {
                      "name": {
                        "type": "string",
                        "example": "Výroba Nůžkových stanů"
                      },
                      "name-url": {
                        "type": "string",
                        "example": "vyroba_stan"
                      },
                      "perex": {
                        "type": "string",
                        "example": ""
                      },
                      "text_info": {
                        "type": "string",
                        "example": "<span style=\"color: #808080; font-size: 15px; font-family: Times;\"><strong>Barevné provedení:</strong> Horní strana Světle béžová, spodní bílá</span><br style=\"color: #808080; font-size: 15px; font-family: Times;\" /><span style=\"color: #808080; font-size: 15px; font-family: Times;\"><strong>Půdorys:</strong> 8x10 m </span><br style=\"color: #808080; font-size: 15px; font-family: Times;\" /><span style=\"color: #808080; font-size: 15px; font-family: Times;\"><strong>Celková výška:</strong> 4 m </span><br style=\"color: #808080; font-size: 15px; font-family: Times;\" /><span style=\"color: #808080; font-size: 15px; font-family: Times;\"><strong>Vhodný povrch:</strong> měkký</span><br style=\"color: #808080; font-size: 15px; font-family: Times;\" /><span style=\"color: #808080; font-size: 15px; font-family: Times;\"><strong>Specifikace:</strong> jednoduchý transport, snadná montáž/demontáž, osvětlení, variabilita použití a dekorací. Ideální na Vaše eventy, svatby a VIP akce. Možnost spojení okapem.<br />Nepromokavý materiál</span>"
                      },
                      "price_info": {
                        "type": "string",
                        "example": "<strong>Cena: 18 000,-</strong>"
                      },
                      "price": {
                        "type": "integer",
                        "example": 0
                      },
                      "order": {
                        "type": "integer",
                        "example": 1
                      },
                      "public": {
                        "type": "string",
                        "example": "-001-11-30T00:00:00+01:00"
                      },
                      "main_photo_path": {
                        "type": "string",
                        "example": "pronajmisito.cz/images/product/test-produkt-M-5ac48d8e2d487.jpg"
                      }
                    }
                  }
                }
              }
            }
          }
        }
      }
    }
  }
}